lab2a-div/divider.vcd
$date
	Fri Feb  4 03:01:57 2022
$end
$version
	Icarus Verilog
$end
$timescale
	1ps
$end
$scope module test_divider $end
$var wire 16 ! o_div_remainder [15:0] $end
$var wire 16 " o_div_quotient [15:0] $end
$var wire 16 # o_1iter_remainder [15:0] $end
$var wire 16 $ o_1iter_quotient [15:0] $end
$var wire 16 % o_1iter_dividend [15:0] $end
$var reg 16 & exp_dividend [15:0] $end
$var reg 16 ' exp_quotient [15:0] $end
$var reg 16 ( exp_remainder [15:0] $end
$var reg 16 ) i_dividend [15:0] $end
$var reg 16 * i_divisor [15:0] $end
$var reg 16 + i_quotient [15:0] $end
$var reg 16 , i_remainder [15:0] $end
$var integer 32 - __ignore [31:0] $end
$var integer 32 . allTests [31:0] $end
$var integer 32 / divTests [31:0] $end
$var integer 32 0 errors [31:0] $end
$var integer 32 1 input_file [31:0] $end
$var integer 32 2 randomSeed [31:0] $end
$scope module div $end
$var wire 16 3 i_dividend [15:0] $end
$var wire 16 4 i_divisor [15:0] $end
$var wire 16 5 o_remainder [15:0] $end
$var wire 16 6 o_quotient [15:0] $end
$scope begin genblk1[0] $end
$scope module div $end
$var wire 16 7 i_dividend [15:0] $end
$var wire 16 8 i_divisor [15:0] $end
$var wire 16 9 i_quotient [15:0] $end
$var wire 16 : i_remainder [15:0] $end
$var wire 16 ; start_remainder [15:0] $end
$var wire 16 < o_remainder [15:0] $end
$var wire 16 = o_quotient [15:0] $end
$var wire 16 > o_dividend [15:0] $end
$upscope $end
$upscope $end
$scope begin genblk1[1] $end
$scope module div $end
$var wire 16 ? i_dividend [15:0] $end
$var wire 16 @ i_divisor [15:0] $end
$var wire 16 A i_quotient [15:0] $end
$var wire 16 B i_remainder [15:0] $end
$var wire 16 C start_remainder [15:0] $end
$var wire 16 D o_remainder [15:0] $end
$var wire 16 E o_quotient [15:0] $end
$var wire 16 F o_dividend [15:0] $end
$upscope $end
$upscope $end
$scope begin genblk1[2] $end
$scope module div $end
$var wire 16 G i_dividend [15:0] $end
$var wire 16 H i_divisor [15:0] $end
$var wire 16 I i_quotient [15:0] $end
$var wire 16 J i_remainder [15:0] $end
$var wire 16 K start_remainder [15:0] $end
$var wire 16 L o_remainder [15:0] $end
$var wire 16 M o_quotient [15:0] $end
$var wire 16 N o_dividend [15:0] $end
$upscope $end
$upscope $end
$scope begin genblk1[3] $end
$scope module div $end
$var wire 16 O i_dividend [15:0] $end
$var wire 16 P i_divisor [15:0] $end
$var wire 16 Q i_quotient [15:0] $end
$var wire 16 R i_remainder [15:0] $end
$var wire 16 S start_remainder [15:0] $end
$var wire 16 T o_remainder [15:0] $end
$var wire 16 U o_quotient [15:0] $end
$var wire 16 V o_dividend [15:0] $end
$upscope $end
$upscope $end
$scope begin genblk1[4] $end
$scope module div $end
$var wire 16 W i_dividend [15:0] $end
$var wire 16 X i_divisor [15:0] $end
$var wire 16 Y i_quotient [15:0] $end
$var wire 16 Z i_remainder [15:0] $end
$var wire 16 [ start_remainder [15:0] $end
$var wire 16 \ o_remainder [15:0] $end
$var wire 16 ] o_quotient [15:0] $end
$var wire 16 ^ o_dividend [15:0] $end
$upscope $end
$upscope $end
$scope begin genblk1[5] $end
$scope module div $end
$var wire 16 _ i_dividend [15:0] $end
$var wire 16 ` i_divisor [15:0] $end
$var wire 16 a i_quotient [15:0] $end
$var wire 16 b i_remainder [15:0] $end
$var wire 16 c start_remainder [15:0] $end
$var wire 16 d o_remainder [15:0] $end
$var wire 16 e o_quotient [15:0] $end
$var wire 16 f o_dividend [15:0] $end
$upscope $end
$upscope $end
$scope begin genblk1[6] $end
$scope module div $end
$var wire 16 g i_dividend [15:0] $end
$var wire 16 h i_divisor [15:0] $end
$var wire 16 i i_quotient [15:0] $end
$var wire 16 j i_remainder [15:0] $end
$var wire 16 k start_remainder [15:0] $end
$var wire 16 l o_remainder [15:0] $end
$var wire 16 m o_quotient [15:0] $end
$var wire 16 n o_dividend [15:0] $end
$upscope $end
$upscope $end
$scope begin genblk1[7] $end
$scope module div $end
$var wire 16 o i_dividend [15:0] $end
$var wire 16 p i_divisor [15:0] $end
$var wire 16 q i_quotient [15:0] $end
$var wire 16 r i_remainder [15:0] $end
$var wire 16 s start_remainder [15:0] $end
$var wire 16 t o_remainder [15:0] $end
$var wire 16 u o_quotient [15:0] $end
$var wire 16 v o_dividend [15:0] $end
$upscope $end
$upscope $end
$scope begin genblk1[8] $end
$scope module div $end
$var wire 16 w i_dividend [15:0] $end
$var wire 16 x i_divisor [15:0] $end
$var wire 16 y i_quotient [15:0] $end
$var wire 16 z i_remainder [15:0] $end
$var wire 16 { start_remainder [15:0] $end
$var wire 16 | o_remainder [15:0] $end
$var wire 16 } o_quotient [15:0] $end
$var wire 16 ~ o_dividend [15:0] $end
$upscope $end
$upscope $end
$scope begin genblk1[9] $end
$scope module div $end
$var wire 16 !" i_dividend [15:0] $end
$var wire 16 "" i_divisor [15:0] $end
$var wire 16 #" i_quotient [15:0] $end
$var wire 16 $" i_remainder [15:0] $end
$var wire 16 %" start_remainder [15:0] $end
$var wire 16 &" o_remainder [15:0] $end
$var wire 16 '" o_quotient [15:0] $end
$var wire 16 (" o_dividend [15:0] $end
$upscope $end
$upscope $end
$scope begin genblk1[10] $end
$scope module div $end
$var wire 16 )" i_dividend [15:0] $end
$var wire 16 *" i_divisor [15:0] $end
$var wire 16 +" i_quotient [15:0] $end
$var wire 16 ," i_remainder [15:0] $end
$var wire 16 -" start_remainder [15:0] $end
$var wire 16 ." o_remainder [15:0] $end
$var wire 16 /" o_quotient [15:0] $end
$var wire 16 0" o_dividend [15:0] $end
$upscope $end
$upscope $end
$scope begin genblk1[11] $end
$scope module div $end
$var wire 16 1" i_dividend [15:0] $end
$var wire 16 2" i_divisor [15:0] $end
$var wire 16 3" i_quotient [15:0] $end
$var wire 16 4" i_remainder [15:0] $end
$var wire 16 5" start_remainder [15:0] $end
$var wire 16 6" o_remainder [15:0] $end
$var wire 16 7" o_quotient [15:0] $end
$var wire 16 8" o_dividend [15:0] $end
$upscope $end
$upscope $end
$scope begin genblk1[12] $end
$scope module div $end
$var wire 16 9" i_dividend [15:0] $end
$var wire 16 :" i_divisor [15:0] $end
$var wire 16 ;" i_quotient [15:0] $end
$var wire 16 <" i_remainder [15:0] $end
$var wire 16 =" start_remainder [15:0] $end
$var wire 16 >" o_remainder [15:0] $end
$var wire 16 ?" o_quotient [15:0] $end
$var wire 16 @" o_dividend [15:0] $end
$upscope $end
$upscope $end
$scope begin genblk1[13] $end
$scope module div $end
$var wire 16 A" i_dividend [15:0] $end
$var wire 16 B" i_divisor [15:0] $end
$var wire 16 C" i_quotient [15:0] $end
$var wire 16 D" i_remainder [15:0] $end
$var wire 16 E" start_remainder [15:0] $end
$var wire 16 F" o_remainder [15:0] $end
$var wire 16 G" o_quotient [15:0] $end
$var wire 16 H" o_dividend [15:0] $end
$upscope $end
$upscope $end
$scope begin genblk1[14] $end
$scope module div $end
$var wire 16 I" i_dividend [15:0] $end
$var wire 16 J" i_divisor [15:0] $end
$var wire 16 K" i_quotient [15:0] $end
$var wire 16 L" i_remainder [15:0] $end
$var wire 16 M" start_remainder [15:0] $end
$var wire 16 N" o_remainder [15:0] $end
$var wire 16 O" o_quotient [15:0] $end
$var wire 16 P" o_dividend [15:0] $end
$upscope $end
$upscope $end
$scope begin genblk1[15] $end
$scope module div $end
$var wire 16 Q" i_dividend [15:0] $end
$var wire 16 R" i_divisor [15:0] $end
$var wire 16 S" i_quotient [15:0] $end
$var wire 16 T" i_remainder [15:0] $end
$var wire 16 U" start_remainder [15:0] $end
$var wire 16 V" o_remainder [15:0] $end
$var wire 16 W" o_quotient [15:0] $end
$var wire 16 X" o_dividend [15:0] $end
$upscope $end
$upscope $end
$upscope $end
$scope module divider_iter $end
$var wire 16 Y" i_dividend [15:0] $end
$var wire 16 Z" i_divisor [15:0] $end
$var wire 16 [" i_quotient [15:0] $end
$var wire 16 \" i_remainder [15:0] $end
$var wire 16 ]" start_remainder [15:0] $end
$var wire 16 ^" o_remainder [15:0] $end
$var wire 16 _" o_quotient [15:0] $end
$var wire 16 `" o_dividend [15:0] $end
$upscope $end
$scope task printPoints $end
$var reg 32 a" actual [31:0] $end
$var reg 32 b" possible [31:0] $end
$upscope $end
$upscope $end
$enddefinitions $end
#0
$dumpvars
bx b"
bx a"
b0 `"
b1 _"
b0 ^"
b0 ]"
b0 \"
b0 ["
b0 Z"
b0 Y"
b0 X"
b1111111111111111 W"
b0 V"
b0 U"
b0 T"
b111111111111111 S"
b0 R"
b0 Q"
b0 P"
b111111111111111 O"
b0 N"
b0 M"
b0 L"
b11111111111111 K"
b0 J"
b0 I"
b0 H"
b11111111111111 G"
b0 F"
b0 E"
b0 D"
b1111111111111 C"
b0 B"
b0 A"
b0 @"
b1111111111111 ?"
b0 >"
b0 ="
b0 <"
b111111111111 ;"
b0 :"
b0 9"
b0 8"
b111111111111 7"
b0 6"
b0 5"
b0 4"
b11111111111 3"
b0 2"
b0 1"
b0 0"
b11111111111 /"
b0 ."
b0 -"
b0 ,"
b1111111111 +"
b0 *"
b0 )"
b0 ("
b1111111111 '"
b0 &"
b0 %"
b0 $"
b111111111 #"
b0 ""
b0 !"
b0 ~
b111111111 }
b0 |
b0 {
b0 z
b11111111 y
b0 x
b0 w
b0 v
b11111111 u
b0 t
b0 s
b0 r
b1111111 q
b0 p
b0 o
b0 n
b1111111 m
b0 l
b0 k
b0 j
b111111 i
b0 h
b0 g
b0 f
b111111 e
b0 d
b0 c
b0 b
b11111 a
b0 `
b0 _
b0 ^
b11111 ]
b0 \
b0 [
b0 Z
b1111 Y
b0 X
b0 W
b0 V
b1111 U
b0 T
b0 S
b0 R
b111 Q
b0 P
b0 O
b0 N
b111 M
b0 L
b0 K
b0 J
b11 I
b0 H
b0 G
b0 F
b11 E
b0 D
b0 C
b0 B
b1 A
b0 @
b0 ?
b0 >
b1 =
b0 <
b0 ;
b0 :
b0 9
b0 8
b0 7
b0 6
b0 5
b0 4
b0 3
b10000000001011000100010000000000 2
b10000000000000000000000000000011 1
b0 0
bx /
b0 .
bx -
b0 ,
b0 +
b0 *
b0 )
bx (
bx '
bx &
b0 %
b1 $
b0 #
b0 "
b0 !
$end
#102000
b11010100100100 V"
b11010100100100 U"
b11010100100 >"
b11010100100 D"
b1101010010010 N"
b1101010010010 T"
b11010100100 ="
b1101010010010 M"
b11010100 &"
b11010100 ,"
b1101010010 6"
b1101010010 <"
b110101001001 F"
b110101001001 L"
b11010100 %"
b1101010010 5"
b110101001001 E"
b1101010 |
b1101010 $"
b110101001 ."
b110101001 4"
b1000000000000000 @"
b1000000000000000 A"
b1101010 {
b110101001 -"
b100000000000000 8"
b100000000000000 9"
b11010 l
b11010 r
b10000000000000 0"
b10000000000000 1"
b11010 k
b110101 t
b110101 z
b1001000000000000 ("
b1001000000000000 )"
b110 \
b110 b
b110101 s
b100100000000000 ~
b100100000000000 !"
b110 [
b1101 d
b1101 j
b10010000000000 v
b10010000000000 w
b1101 c
b1001001000000000 n
b1001001000000000 o
b11 T
b11 Z
b100100100000000 f
b100100100000000 g
b1 L
b1 R
b11 S
b1010010010000000 ^
b1010010010000000 _
b1 K
b101001001000000 V
b101001001000000 W
b1010100100100000 N
b1010100100100000 O
b1101010010010000 F
b1101010010010000 G
b110101001001000 >
b110101001001000 ?
b110101001001000 %
b110101001001000 `"
b11010100100100 7
b11010100100100 )
b11010100100100 3
b11010100100100 Y"
#110000
b101111010000 >"
b101111010000 D"
b10111101000000 N"
b10111101000000 T"
b101111010000 ="
b10111101000000 M"
b101111010000001 V"
b101111010000001 U"
b10111101000 6"
b10111101000 <"
b1011110100000 F"
b1011110100000 L"
b10111101000 5"
b1011110100000 E"
b1000000000000000 P"
b1000000000000000 Q"
b101111010 &"
b101111010 ,"
b100000000000000 H"
b100000000000000 I"
b101111010 %"
b1011110100 ."
b1011110100 4"
b10000000000000 @"
b10000000000000 A"
b1011110100 -"
b1000000000000 8"
b1000000000000 9"
b10111101 |
b10111101 $"
b100000000000 0"
b100000000000 1"
b10111 d
b10111 j
b1011110 t
b1011110 z
b10111101 {
b10000000000 ("
b10000000000 )"
b10111 c
b101111 l
b101111 r
b1011110 s
b1000000000 ~
b1000000000 !"
b101 T
b101 Z
b101111 k
b1000000100000000 v
b1000000100000000 w
b101 S
b1011 \
b1011 b
b100000010000000 n
b100000010000000 o
b1011 [
b1010000001000000 f
b1010000001000000 g
b10 L
b10 R
b1101000000100000 ^
b1101000000100000 _
b1 D
b1 J
b10 K
b1110100000010000 V
b1110100000010000 W
b1 C
b1111010000001000 N
b1111010000001000 O
b111101000000100 F
b111101000000100 G
b101111010000001 !
b101111010000001 5
b0 "
b0 6
b0 =
b0 A
b0 E
b0 I
b0 M
b0 Q
b0 U
b0 Y
b0 ]
b0 a
b0 e
b0 i
b0 m
b0 q
b0 u
b0 y
b0 }
b0 #"
b0 '"
b0 +"
b0 /"
b0 3"
b0 7"
b0 ;"
b0 ?"
b0 C"
b0 G"
b0 K"
b0 O"
b0 S"
b0 W"
b0 $
b0 _"
b1011110100000010 >
b1011110100000010 ?
b1011110100000010 %
b1011110100000010 `"
b1101011000001001 *
b1101011000001001 4
b1101011000001001 8
b1101011000001001 @
b1101011000001001 H
b1101011000001001 P
b1101011000001001 X
b1101011000001001 `
b1101011000001001 h
b1101011000001001 p
b1101011000001001 x
b1101011000001001 ""
b1101011000001001 *"
b1101011000001001 2"
b1101011000001001 :"
b1101011000001001 B"
b1101011000001001 J"
b1101011000001001 R"
b1101011000001001 Z"
b101111010000001 7
b101111010000001 )
b101111010000001 3
b101111010000001 Y"
b0 /
b1 .
#118000
b11 .
b10 /
b101111010000001 (
b0 '
#120000
b1010110011000 F"
b1010110011000 L"
b1010110011000 E"
b101011001100011 !
b101011001100011 5
b101011001100011 V"
b101011001100 >"
b101011001100 D"
b101011001100011 U"
b101011001100 ="
b10101100110001 N"
b10101100110001 T"
b1010110 t
b1010110 z
b10101100110 6"
b10101100110 <"
b10101100110001 M"
b1010110 s
b10101100110 5"
b1100000000000000 H"
b1100000000000000 I"
b101011 l
b101011 r
b1010110011 ."
b1010110011 4"
b110000000000000 @"
b110000000000000 A"
b101011 k
b101011001 &"
b101011001 ,"
b1010110011 -"
b11000000000000 8"
b11000000000000 9"
b10101100 |
b10101100 $"
b101011001 %"
b1100000000000 0"
b1100000000000 1"
b10101 d
b10101 j
b10101100 {
b1000110000000000 ("
b1000110000000000 )"
b10101 c
b1100011000000000 ~
b1100011000000000 !"
b110001100000000 v
b110001100000000 w
b1010 \
b1010 b
b11000110000000 n
b11000110000000 o
b1010 [
b1001100011000000 f
b1001100011000000 g
b1100110001100000 ^
b1100110001100000 _
b110011000110000 V
b110011000110000 W
b1011001100011000 N
b1011001100011000 O
b101100110001100 F
b101100110001100 G
b1010110011000110 >
b1010110011000110 ?
b1010110011000110 %
b1010110011000110 `"
b111101100001101 *
b111101100001101 4
b111101100001101 8
b111101100001101 @
b111101100001101 H
b111101100001101 P
b111101100001101 X
b111101100001101 `
b111101100001101 h
b111101100001101 p
b111101100001101 x
b111101100001101 ""
b111101100001101 *"
b111101100001101 2"
b111101100001101 :"
b111101100001101 B"
b111101100001101 J"
b111101100001101 R"
b111101100001101 Z"
b101011001100011 7
b101011001100011 )
b101011001100011 3
b101011001100011 Y"
#128000
b101 .
b100 /
b101011001100011 (
#130000
b1 "
b1 6
b1 W"
b1010100101000 !
b1010100101000 5
b1010100101000 V"
b1001100110001101 U"
b100110011000110 N"
b100110011000110 T"
b100110011000 6"
b100110011000 <"
b10011001100011 F"
b10011001100011 L"
b100110011000110 M"
b100110011000 5"
b1001100110001 >"
b1001100110001 D"
b10011001100011 E"
b1001100110001 ="
b100000000000000 H"
b100000000000000 I"
b10011001100 ."
b10011001100 4"
b1010000000000000 @"
b1010000000000000 A"
b1001100110 &"
b1001100110 ,"
b10011001100 -"
b1101000000000000 8"
b1101000000000000 9"
b100110011 |
b100110011 $"
b1001100110 %"
b110100000000000 0"
b110100000000000 1"
b1001 T
b1001 Z
b10011001 t
b10011001 z
b100110011 {
b11010000000000 ("
b11010000000000 )"
b1001 S
b1001100 l
b1001100 r
b10011001 s
b1101000000000 ~
b1101000000000 !"
b100110 d
b100110 j
b1001100 k
b1000110100000000 v
b1000110100000000 w
b100 L
b100 R
b10011 \
b10011 b
b100110 c
b1100011010000000 n
b1100011010000000 o
b100 K
b10011 [
b110001101000000 f
b110001101000000 g
b11000110100000 ^
b11000110100000 _
b10 D
b10 J
b1001100011010000 V
b1001100011010000 W
b1 <
b1 B
b10 C
b1100110001101000 N
b1100110001101000 O
b1 #
b1 ^"
b1 ;
b110011000110100 F
b110011000110100 G
b1 ]"
b11001100011010 >
b11001100011010 ?
b11001100011010 %
b11001100011010 `"
b1000010001100101 *
b1000010001100101 4
b1000010001100101 8
b1000010001100101 @
b1000010001100101 H
b1000010001100101 P
b1000010001100101 X
b1000010001100101 `
b1000010001100101 h
b1000010001100101 p
b1000010001100101 x
b1000010001100101 ""
b1000010001100101 *"
b1000010001100101 2"
b1000010001100101 :"
b1000010001100101 B"
b1000010001100101 J"
b1000010001100101 R"
b1000010001100101 Z"
b1001100110001101 7
b1001100110001101 )
b1001100110001101 3
b1001100110001101 Y"
#138000
b111 .
b110 /
b1 '
b1010100101000 (
#140000
b1010010000 ."
b1010010000 4"
b10100100001001 N"
b10100100001001 T"
b101001000010010 U"
b1010010000 -"
b1010010000100 F"
b1010010000100 L"
b10100100001001 M"
b101001000010 >"
b101001000010 D"
b1010010000100 E"
b0 P"
b0 Q"
b101001000 &"
b101001000 ,"
b10100100001 6"
b10100100001 <"
b101001000010 ="
b1000000000000000 H"
b1000000000000000 I"
b101001000 %"
b10100100001 5"
b100000000000000 @"
b100000000000000 A"
b10000000000000 8"
b10000000000000 9"
b10100100 |
b10100100 $"
b1001000000000000 0"
b1001000000000000 1"
b101 T
b101 Z
b10100 d
b10100 j
b1010010 t
b1010010 z
b10100100 {
b100100000000000 ("
b100100000000000 )"
b101 S
b10100 c
b101001 l
b101001 r
b1010010 s
b10010000000000 ~
b10010000000000 !"
b101001 k
b1001000000000 v
b1001000000000 w
b10 L
b10 R
b1010 \
b1010 b
b100100000000 n
b100100000000 o
b10 K
b1010 [
b1000010010000000 f
b1000010010000000 g
b100001001000000 ^
b100001001000000 _
b1 D
b1 J
b10000100100000 V
b10000100100000 W
b0 <
b0 B
b1 C
b1001000010010000 N
b1001000010010000 O
b0 #
b0 ^"
b101001000010010 !
b101001000010010 5
b0 "
b0 6
b0 ;
b100100001001000 F
b100100001001000 G
b0 ]"
b101001000010010 V"
b0 W"
b1010010000100100 >
b1010010000100100 ?
b1010010000100100 %
b1010010000100100 `"
b1110001100000001 *
b1110001100000001 4
b1110001100000001 8
b1110001100000001 @
b1110001100000001 H
b1110001100000001 P
b1110001100000001 X
b1110001100000001 `
b1110001100000001 h
b1110001100000001 p
b1110001100000001 x
b1110001100000001 ""
b1110001100000001 *"
b1110001100000001 2"
b1110001100000001 :"
b1110001100000001 B"
b1110001100000001 J"
b1110001100000001 R"
b1110001100000001 Z"
b101001000010010 7
b101001000010010 )
b101001000010010 3
b101001000010010 Y"
#148000
b1001 .
b1000 /
b101001000010010 (
b0 '
#150000
b11001101000 ."
b11001101000 4"
b1100110100001101 !
b1100110100001101 5
b11001101000 -"
b1100110100001101 V"
b110011010000110 N"
b110011010000110 T"
b1100110100001101 U"
b1100110100 &"
b1100110100 ,"
b11001101000011 F"
b11001101000011 L"
b110011010000110 M"
b1100110100 %"
b1100110100001 >"
b1100110100001 D"
b11001101000011 E"
b1000000000000000 P"
b1000000000000000 Q"
b110011010000 6"
b110011010000 <"
b1100110100001 ="
b100000000000000 H"
b100000000000000 I"
b110011010 |
b110011010 $"
b110011010000 5"
b1010000000000000 @"
b1010000000000000 A"
b110011010 {
b1101000000000000 8"
b1101000000000000 9"
b110100000000000 0"
b110100000000000 1"
b11001101 t
b11001101 z
b11010000000000 ("
b11010000000000 )"
b110 L
b110 R
b1100110 l
b1100110 r
b11001101 s
b1101000000000 ~
b1101000000000 !"
b110 K
b110011 d
b110011 j
b1100110 k
b110100000000 v
b110100000000 w
b11001 \
b11001 b
b110011 c
b1000011010000000 n
b1000011010000000 o
b11 D
b11 J
b1100 T
b1100 Z
b11001 [
b100001101000000 f
b100001101000000 g
b11 C
b1100 S
b1010000110100000 ^
b1010000110100000 _
b1101000011010000 V
b1101000011010000 W
b1 <
b1 B
b110100001101000 N
b110100001101000 O
b1 #
b1 ^"
b1 ;
b11010000110100 F
b11010000110100 G
b1 ]"
b1001101000011010 >
b1001101000011010 ?
b1001101000011010 %
b1001101000011010 `"
b1111000101110110 *
b1111000101110110 4
b1111000101110110 8
b1111000101110110 @
b1111000101110110 H
b1111000101110110 P
b1111000101110110 X
b1111000101110110 `
b1111000101110110 h
b1111000101110110 p
b1111000101110110 x
b1111000101110110 ""
b1111000101110110 *"
b1111000101110110 2"
b1111000101110110 :"
b1111000101110110 B"
b1111000101110110 J"
b1111000101110110 R"
b1111000101110110 Z"
b1100110100001101 7
b1100110100001101 )
b1100110100001101 3
b1100110100001101 Y"
#158000
b1011 .
b1010 /
b1100110100001101 (
#160000
b110011010011110 M"
b11001101001111 F"
b11001101001111 L"
b11001101001111 E"
b1100110100111 >"
b1100110100111 D"
b1100110100111 ="
b110011010011 6"
b110011010011 <"
b11001101001 ."
b11001101001 4"
b110011010011 5"
b11001101001 -"
b1110100000000000 0"
b1110100000000000 1"
b1111010000000000 ("
b1111010000000000 )"
b111101000000000 ~
b111101000000000 !"
b11110100000000 v
b11110100000000 w
b1001111010000000 n
b1001111010000000 o
b100111101000000 f
b100111101000000 g
b1010011110100000 ^
b1010011110100000 _
b1101001111010000 V
b1101001111010000 W
b1110101100011 U"
b110100111101000 N
b110100111101000 O
b1110101100011 !
b1110101100011 5
b10 "
b10 6
b11010011110100 F
b11010011110100 G
b111010110001 N"
b111010110001 T"
b1 O"
b1 S"
b1110101100011 V"
b10 W"
b1001101001111010 >
b1001101001111010 ?
b1001101001111010 %
b1001101001111010 `"
b101011111101101 *
b101011111101101 4
b101011111101101 8
b101011111101101 @
b101011111101101 H
b101011111101101 P
b101011111101101 X
b101011111101101 `
b101011111101101 h
b101011111101101 p
b101011111101101 x
b101011111101101 ""
b101011111101101 *"
b101011111101101 2"
b101011111101101 :"
b101011111101101 B"
b101011111101101 J"
b101011111101101 R"
b101011111101101 Z"
b1100110100111101 7
b1100110100111101 )
b1100110100111101 3
b1100110100111101 Y"
#168000
b1101 .
b1100 /
b10 '
b1110101100011 (
#170000
b111101111000110 M"
b11110111100011 F"
b11110111100011 L"
b11110111100011 E"
b1111011110001 >"
b1111011110001 D"
b1111011110001 ="
b0 P"
b0 Q"
b1111011110 &"
b1111011110 ,"
b111101111000 6"
b111101111000 <"
b0 H"
b0 I"
b1111011110 %"
b11110111100 ."
b11110111100 4"
b111101111000 5"
b1000000000000000 @"
b1000000000000000 A"
b11110111 t
b11110111 z
b11110111100 -"
b1100000000000000 8"
b1100000000000000 9"
b11110111 s
b111101111 |
b111101111 $"
b110000000000000 0"
b110000000000000 1"
b111101 d
b111101 j
b111101111 {
b11000000000000 ("
b11000000000000 )"
b111101 c
b1111011 l
b1111011 r
b1100000000000 ~
b1100000000000 !"
b1111011 k
b1000110000000000 v
b1000110000000000 w
b11110 \
b11110 b
b1100011000000000 n
b1100011000000000 o
b1111 T
b1111 Z
b11110 [
b1110001100000000 f
b1110001100000000 g
b110110010011 !
b110110010011 5
b111 L
b111 R
b1111 S
b1111000110000000 ^
b1111000110000000 _
b110110010011 V"
b1 "
b1 6
b111 K
b111100011000000 V
b111100011000000 W
b1111011110001100 U"
b1 W"
b1011110001100000 N
b1011110001100000 O
b1101111000110000 F
b1101111000110000 G
b111101111000110 N"
b111101111000110 T"
b0 O"
b0 S"
b1110111100011000 >
b1110111100011000 ?
b1110111100011000 %
b1110111100011000 `"
b1110100111111001 *
b1110100111111001 4
b1110100111111001 8
b1110100111111001 @
b1110100111111001 H
b1110100111111001 P
b1110100111111001 X
b1110100111111001 `
b1110100111111001 h
b1110100111111001 p
b1110100111111001 x
b1110100111111001 ""
b1110100111111001 *"
b1110100111111001 2"
b1110100111111001 :"
b1110100111111001 B"
b1110100111111001 J"
b1110100111111001 R"
b1110100111111001 Z"
b1111011110001100 7
b1111011110001100 )
b1111011110001100 3
b1111011110001100 Y"
#178000
b1111 .
b1110 /
b110110010011 (
b1 '
#180000
b0 "
b0 6
b0 W"
b10010011000110 U"
b1001001100 6"
b1001001100 <"
b100100110001 F"
b100100110001 L"
b1001001100 5"
b100100110001 E"
b1001001100011 N"
b1001001100011 T"
b1001001100011 M"
b100100110 ."
b100100110 4"
b10010011000 >"
b10010011000 D"
b100100110 -"
b10010011000 ="
b1000000000000000 H"
b1000000000000000 I"
b1001001 |
b1001001 $"
b1100000000000000 @"
b1100000000000000 A"
b1001 d
b1001 j
b1001001 {
b10010011 &"
b10010011 ,"
b110000000000000 8"
b110000000000000 9"
b1001 c
b10010011 %"
b11000000000000 0"
b11000000000000 1"
b100100 t
b100100 z
b1100000000000 ("
b1100000000000 )"
b100 \
b100 b
b10010 l
b10010 r
b100100 s
b1000110000000000 ~
b1000110000000000 !"
b100 [
b10010 k
b1100011000000000 v
b1100011000000000 w
b1 L
b1 R
b110001100000000 n
b110001100000000 o
b1 K
b10 T
b10 Z
b11000110000000 f
b11000110000000 g
b10 S
b1001100011000000 ^
b1001100011000000 _
b0 D
b0 J
b100110001100000 V
b100110001100000 W
b0 <
b0 B
b0 C
b10011000110000 N
b10011000110000 O
b0 #
b0 ^"
b10010011000110 !
b10010011000110 5
b0 ;
b1001001100011000 F
b1001001100011000 G
b0 ]"
b10010011000110 V"
b100100110001100 >
b100100110001100 ?
b100100110001100 %
b100100110001100 `"
b1000010011000101 *
b1000010011000101 4
b1000010011000101 8
b1000010011000101 @
b1000010011000101 H
b1000010011000101 P
b1000010011000101 X
b1000010011000101 `
b1000010011000101 h
b1000010011000101 p
b1000010011000101 x
b1000010011000101 ""
b1000010011000101 *"
b1000010011000101 2"
b1000010011000101 :"
b1000010011000101 B"
b1000010011000101 J"
b1000010011000101 R"
b1000010011000101 Z"
b10010011000110 7
b10010011000110 )
b10010011000110 3
b10010011000110 Y"
#188000
b10001 .
b10000 /
b10010011000110 (
b0 '
#190000
b1101001010101010 !
b1101001010101010 5
b1101001010101010 V"
b1101001010101010 U"
b110100101010101 N"
b110100101010101 T"
b110100101010101 M"
b110100101010 6"
b110100101010 <"
b11010010101010 F"
b11010010101010 L"
b110100101 |
b110100101 $"
b110100101010 5"
b1101001010101 >"
b1101001010101 D"
b11010010101010 E"
b110100101 {
b1101001010101 ="
b11010010101 ."
b11010010101 4"
b100000000000000 @"
b100000000000000 A"
b11010010 t
b11010010 z
b1101001010 &"
b1101001010 ,"
b11010010101 -"
b1010000000000000 8"
b1010000000000000 9"
b11010010 s
b1101001010 %"
b101000000000000 0"
b101000000000000 1"
b1010100000000000 ("
b1010100000000000 )"
b11010 \
b11010 b
b1101001 l
b1101001 r
b101010000000000 ~
b101010000000000 !"
b11010 [
b110100 d
b110100 j
b1101001 k
b1010101000000000 v
b1010101000000000 w
b110100 c
b101010100000000 n
b101010100000000 o
b1101 T
b1101 Z
b1010101010000000 f
b1010101010000000 g
b110 L
b110 R
b1101 S
b101010101000000 ^
b101010101000000 _
b11 D
b11 J
b110 K
b10101010100000 V
b10101010100000 W
b1 <
b1 B
b11 C
b1001010101010000 N
b1001010101010000 O
b1 #
b1 ^"
b1 ;
b100101010101000 F
b100101010101000 G
b1 ]"
b1010010101010100 >
b1010010101010100 ?
b1010010101010100 %
b1010010101010100 `"
b1111011111100101 *
b1111011111100101 4
b1111011111100101 8
b1111011111100101 @
b1111011111100101 H
b1111011111100101 P
b1111011111100101 X
b1111011111100101 `
b1111011111100101 h
b1111011111100101 p
b1111011111100101 x
b1111011111100101 ""
b1111011111100101 *"
b1111011111100101 2"
b1111011111100101 :"
b1111011111100101 B"
b1111011111100101 J"
b1111011111100101 R"
b1111011111100101 Z"
b1101001010101010 7
b1101001010101010 )
b1101001010101010 3
b1101001010101010 Y"
#198000
b10011 .
b10010 /
b1101001010101010 (
